{
  "description": "",
  "language": "es",
  "shortDescription": "",
  "examples": "",
  "linkToDocs": "",
  "displayName": "don-croqueto",
  "disableInteractionLogs": false,
  "disableStackdriverLogs": true,
  "googleAssistant": {
    "googleAssistantCompatible": false,
    "project": "",
    "welcomeIntentSignInRequired": false,
    "startIntents": [],
    "systemIntents": [],
    "endIntentIds": [
      "9636f46f-e692-48f8-bb46-83de92d28ae7",
      "24911fd0-350f-409f-b7a3-fd96ea739e15",
      "fc681702-f6b2-46bf-9aa1-5e09e05d350c"
    ],
    "oAuthLinking": {
      "required": false,
      "providerId": "",
      "authorizationUrl": "",
      "tokenUrl": "",
      "scopes": "",
      "privacyPolicyUrl": "",
      "grantType": "AUTH_CODE_GRANT"
    },
    "voiceType": "MALE_1",
    "capabilities": [],
    "env": "",
    "protocolVersion": "V2",
    "autoPreviewEnabled": false,
    "isDeviceAgent": false
  },
  "defaultTimezone": "Europe/Madrid",
  "webhook": {
    "url": "https://don-croqueto-backend-dev.herokuapp.com/croqueto/api/event",
    "username": "",
    "headers": {},
    "available": true,
    "useForDomains": false,
    "cloudFunctionsEnabled": false,
    "cloudFunctionsInitialized": false
  },
  "isPrivate": true,
  "mlMinConfidence": 0.3,
  "supportedLanguages": [],
  "enableOnePlatformApi": true,
  "onePlatformApiVersion": "v2",
  "secondaryKey": "5c1ec71ed3994291a6cb5240c38a2a92",
  "analyzeQueryTextSentiment": false,
  "enabledKnowledgeBaseNames": [],
  "knowledgeServiceConfidenceAdjustment": 0.0,
  "dialogBuilderMode": false,
  "baseActionPackagesUrl": "",
  "enableSpellCorrection": false
}