{
  "id": "e7cc6990-7b9a-4524-804e-65f99cc70709",
  "name": "Bienvenida - Crear receta",
  "auto": true,
  "contexts": [
    "bienvenida-followup"
  ],
  "responses": [
    {
      "resetContexts": false,
      "action": "input.recipe.create",
      "affectedContexts": [
        {
          "name": "Bienvenida-Crearreceta-followup",
          "lifespan": 2
        }
      ],
      "parameters": [],
      "messages": [
        {
          "type": "0",
          "title": "",
          "textToSpeech": "",
          "lang": "es",
          "speech": [
            "Perfecto, ¡Empecemos!\n¿Qué nombre le quieres dar?",
            "¿Qué nombre le vas a dar?"
          ],
          "condition": ""
        }
      ],
      "speech": []
    }
  ],
  "priority": 500000,
  "webhookUsed": false,
  "webhookForSlotFilling": false,
  "fallbackIntent": false,
  "events": [],
  "conditionalResponses": [],
  "condition": "",
  "conditionalFollowupEvents": []
}