{
  "id": "fc681702-f6b2-46bf-9aa1-5e09e05d350c",
  "name": "Bienvenida - Leer receta",
  "auto": true,
  "contexts": [
    "bienvenida-followup"
  ],
  "responses": [
    {
      "resetContexts": false,
      "action": "input.recipe.read",
      "affectedContexts": [],
      "parameters": [
        {
          "id": "3d02282b-e476-4ee6-be1c-cf8632c5f956",
          "name": "recipe",
          "required": true,
          "dataType": "@sys.any",
          "value": "$recipe",
          "defaultValue": "",
          "isList": false,
          "prompts": [
            {
              "lang": "es",
              "value": "Perdona, no te he entendido. ¿Qué quieres cocinar?"
            },
            {
              "lang": "es",
              "value": "Lo siento, pero no he podido comprender el nombre de la receta. ¿Podrías repetirmelo?"
            }
          ],
          "promptMessages": [],
          "noMatchPromptMessages": [],
          "noInputPromptMessages": [],
          "outputDialogContexts": []
        }
      ],
      "messages": [
        {
          "type": "0",
          "title": "",
          "textToSpeech": "",
          "lang": "es",
          "speech": [
            "Mmmm croquetas! Esa es mi especialidad. Aquí tienes la receta:\n\n- Receta: Croquetas de Jamón\n\n- Ingredientes:\n    * 1 litro de leche entera\n    * 100 gramos de harina\n    * 100 gramos de mantequilla\n    * Nuez moscada\n    * 250 gramos de jamón serrano\n    * Sal\n    * Pimienta\n    * Huevos\n    * Pan rallado\n\n- Como hacer Croquetas de Jamon:\n    * Preparar la bechamel: rehogar la harina con mantequilla y un chorrito de aceite\n    * Incorporar la leche poco a poco\n    * Echar nuez moscada\n    * Agregamos el jamón cortado en trozos pequeños\n    * Cocinar unos 12 minutos\n    * Ponemos la masa en una bandeja y dejamos enfriar\n    * Una vez fria, dar forma a las croquetas con huevo y pan rallado\n    * Freímos en abundante aceite caliente\n\n¡Qué aproveche!"
          ],
          "condition": ""
        }
      ],
      "speech": []
    }
  ],
  "priority": 500000,
  "webhookUsed": true,
  "webhookForSlotFilling": false,
  "fallbackIntent": false,
  "events": [],
  "conditionalResponses": [],
  "condition": "",
  "conditionalFollowupEvents": [],
  "endInteraction": true
}