{
  "id": "05b0aa3e-ca88-4952-bc43-ddc1a72ac7b0",
  "parentId": "88557419-b523-488d-9463-2cc90ec3791f",
  "rootParentId": "e7cc6990-7b9a-4524-804e-65f99cc70709",
  "name": "Bienvenida - Crear receta - Pasos",
  "auto": true,
  "contexts": [
    "Bienvenida-Crearreceta-Nombre-Ingredientes-followup"
  ],
  "responses": [
    {
      "resetContexts": false,
      "action": "input.recipe.create.step",
      "affectedContexts": [
        {
          "name": "Bienvenida-Crearreceta-Nombre-Ingredientes-Pasos-followup",
          "lifespan": 2
        }
      ],
      "parameters": [
        {
          "id": "de5066bc-e40f-4d94-95dd-eefa1188b710",
          "name": "recipe",
          "required": false,
          "dataType": "@sys.any",
          "value": "#bienvenida-crearreceta-nombre-followup.recipe",
          "defaultValue": "",
          "isList": false,
          "prompts": [],
          "promptMessages": [],
          "noMatchPromptMessages": [],
          "noInputPromptMessages": [],
          "outputDialogContexts": []
        }
      ],
      "messages": [
        {
          "type": "0",
          "title": "",
          "textToSpeech": "",
          "lang": "es",
          "speech": [
            "¿Qué pasos hay que seguir para hacer $recipe?"
          ],
          "condition": ""
        }
      ],
      "speech": []
    }
  ],
  "priority": 500000,
  "webhookUsed": false,
  "webhookForSlotFilling": false,
  "fallbackIntent": false,
  "events": [],
  "conditionalResponses": [],
  "condition": "",
  "conditionalFollowupEvents": []
}