{
  "id": "24911fd0-350f-409f-b7a3-fd96ea739e15",
  "name": "Despedida",
  "auto": true,
  "contexts": [],
  "responses": [
    {
      "resetContexts": false,
      "action": "input.goodbye",
      "affectedContexts": [],
      "parameters": [],
      "messages": [
        {
          "type": "0",
          "title": "",
          "textToSpeech": "",
          "lang": "es",
          "speech": [
            "Adiós",
            "¡Hasta pronto!",
            "Ha sido un placer hablar contigo, ¡nos vemos pronto!"
          ],
          "condition": ""
        }
      ],
      "speech": []
    }
  ],
  "priority": 500000,
  "webhookUsed": false,
  "webhookForSlotFilling": false,
  "fallbackIntent": false,
  "events": [],
  "conditionalResponses": [],
  "condition": "",
  "conditionalFollowupEvents": [],
  "endInteraction": true
}